<svg xmlns="http://www.w3.org/2000/svg" width="768" height="88" viewBox="0 0 768 88">
    <g id="Grupo_239" data-name="Grupo 239" transform="translate(-344 -2620)">
        <rect id="Retângulo_136" data-name="Retângulo 136" width="768" height="18" transform="translate(344 2620)"/>
        <rect id="Retângulo_137" data-name="Retângulo 137" width="768" height="17" transform="translate(344 2638)" fill="#7d2f00"/>
        <rect id="Retângulo_138" data-name="Retângulo 138" width="768" height="18" transform="translate(344 2655)" fill="#00dff1"/>
        <rect id="Retângulo_139" data-name="Retângulo 139" width="768" height="18" transform="translate(344 2673)" fill="#ffa8ca"/>
        <rect id="Retângulo_140" data-name="Retângulo 140" width="768" height="17" transform="translate(344 2691)" fill="#fff"/>
    </g>
</svg>